EESchema Schematic File Version 4
LIBS:foto-cache
EELAYER 26 0
EELAYER END
$Descr A4 11693 8268
encoding utf-8
Sheet 1 1
Title ""
Date ""
Rev ""
Comp ""
Comment1 ""
Comment2 ""
Comment3 ""
Comment4 ""
$EndDescr
$Comp
L Device:R_POT RV2
U 1 1 5BFF43C5
P 4400 3500
F 0 "RV2" V 4400 3750 50  0000 C CNN
F 1 "220" V 4250 4000 50  0001 C CNN
F 2 "Potentiometer_THT:Potentiometer_Bourns_3266Z_Horizontal" H 4400 3500 50  0001 C CNN
F 3 "~" H 4400 3500 50  0001 C CNN
	1    4400 3500
	0    1    1    0   
$EndComp
Wire Wire Line
	4400 3650 4400 3750
Wire Wire Line
	4400 3750 4550 3750
$Comp
L Device:R_POT RV1
U 1 1 5BFF7C65
P 3600 2800
F 0 "RV1" H 3530 2846 50  0000 R CNN
F 1 "10k" H 3530 2755 50  0000 R CNN
F 2 "Potentiometer_THT:Potentiometer_Bourns_3266Z_Horizontal" H 3600 2800 50  0001 C CNN
F 3 "~" H 3600 2800 50  0001 C CNN
	1    3600 2800
	1    0    0    -1  
$EndComp
$Comp
L Device:C C3
U 1 1 5BFF7F40
P 4950 3250
F 0 "C3" H 5065 3296 50  0000 L CNN
F 1 "0,047uF" H 5065 3205 50  0000 L CNN
F 2 "Capacitor_THT:CP_Radial_D7.5mm_P2.50mm" H 4988 3100 50  0001 C CNN
F 3 "~" H 4950 3250 50  0001 C CNN
	1    4950 3250
	1    0    0    -1  
$EndComp
$Comp
L Device:R R1
U 1 1 5BFF7F9D
P 4950 3700
F 0 "R1" H 5020 3746 50  0000 L CNN
F 1 "R" H 5020 3655 50  0000 L CNN
F 2 "Resistor_THT:R_Axial_DIN0309_L9.0mm_D3.2mm_P25.40mm_Horizontal" V 4880 3700 50  0001 C CNN
F 3 "~" H 4950 3700 50  0001 C CNN
	1    4950 3700
	1    0    0    -1  
$EndComp
$Comp
L Device:R R3
U 1 1 5BFF8021
P 5550 3000
F 0 "R3" H 5620 3046 50  0000 L CNN
F 1 "56" H 5620 2955 50  0000 L CNN
F 2 "Resistor_THT:R_Axial_DIN0309_L9.0mm_D3.2mm_P25.40mm_Horizontal" V 5480 3000 50  0001 C CNN
F 3 "~" H 5550 3000 50  0001 C CNN
	1    5550 3000
	1    0    0    -1  
$EndComp
$Comp
L Device:R R2
U 1 1 5BFF806D
P 5400 3150
F 0 "R2" V 5193 3150 50  0000 C CNN
F 1 "56" V 5284 3150 50  0000 C CNN
F 2 "Resistor_THT:R_Axial_DIN0309_L9.0mm_D3.2mm_P25.40mm_Horizontal" V 5330 3150 50  0001 C CNN
F 3 "~" H 5400 3150 50  0001 C CNN
	1    5400 3150
	0    1    1    0   
$EndComp
Connection ~ 5550 3150
$Comp
L Device:R_POT RV3
U 1 1 5BFF8249
P 5250 3450
F 0 "RV3" H 5180 3496 50  0000 R CNN
F 1 "100" H 5180 3405 50  0000 R CNN
F 2 "Potentiometer_THT:Potentiometer_Bourns_3266Z_Horizontal" H 5250 3450 50  0001 C CNN
F 3 "~" H 5250 3450 50  0001 C CNN
	1    5250 3450
	1    0    0    -1  
$EndComp
Wire Wire Line
	4950 3850 5250 3850
Wire Wire Line
	5250 3550 5250 3600
Connection ~ 5250 3850
Wire Wire Line
	5250 3850 5400 3850
Wire Wire Line
	4550 2850 4950 2850
Wire Wire Line
	4950 3100 4950 2850
Connection ~ 4950 2850
Wire Wire Line
	4950 2850 5550 2850
Connection ~ 5250 3600
Wire Wire Line
	5250 3600 5250 3850
Wire Wire Line
	5550 3150 5900 3150
Wire Wire Line
	5250 3150 5250 3300
Wire Wire Line
	4950 3400 4950 3550
$Comp
L Amplifier_Audio:LM386 U1
U 1 1 5BFF4067
P 4250 2850
F 0 "U1" H 4300 3000 50  0000 L CNN
F 1 "LM386" H 4100 2850 50  0000 L CNN
F 2 "Package_DIP:DIP-8_W7.62mm_Socket_LongPads" H 4350 2950 50  0001 C CNN
F 3 "http://www.ti.com/lit/ds/symlink/lm386.pdf" H 4450 3050 50  0001 C CNN
	1    4250 2850
	1    0    0    -1  
$EndComp
Wire Wire Line
	4350 3150 4550 3150
Wire Wire Line
	4550 3150 4550 3500
$Comp
L Device:CP1 C2
U 1 1 5BFFAB33
P 4550 2400
F 0 "C2" H 4435 2354 50  0000 R CNN
F 1 "10uF" H 4435 2445 50  0000 R CNN
F 2 "Capacitor_THT:CP_Radial_D12.5mm_P5.00mm" H 4550 2400 50  0001 C CNN
F 3 "~" H 4550 2400 50  0001 C CNN
	1    4550 2400
	-1   0    0    1   
$EndComp
$Comp
L power:GND #PWR0101
U 1 1 5BFFACEE
P 5900 3850
F 0 "#PWR0101" H 5900 3600 50  0001 C CNN
F 1 "GND" H 5905 3677 50  0000 C CNN
F 2 "" H 5900 3850 50  0001 C CNN
F 3 "" H 5900 3850 50  0001 C CNN
	1    5900 3850
	1    0    0    -1  
$EndComp
$Comp
L power:GND #PWR0102
U 1 1 5BFFB127
P 4550 2150
F 0 "#PWR0102" H 4550 1900 50  0001 C CNN
F 1 "GND" H 4555 1977 50  0000 C CNN
F 2 "" H 4550 2150 50  0001 C CNN
F 3 "" H 4550 2150 50  0001 C CNN
	1    4550 2150
	-1   0    0    1   
$EndComp
$Comp
L power:GND #PWR0103
U 1 1 5BFFB199
P 4100 3900
F 0 "#PWR0103" H 4100 3650 50  0001 C CNN
F 1 "GND" H 4105 3727 50  0000 C CNN
F 2 "" H 4100 3900 50  0001 C CNN
F 3 "" H 4100 3900 50  0001 C CNN
	1    4100 3900
	1    0    0    -1  
$EndComp
Wire Wire Line
	4150 3150 4150 3300
$Comp
L Switch:SW_DIP_x01 SW1
U 1 1 5BFFB9F1
P 3850 1650
F 0 "SW1" H 3850 1917 50  0000 C CNN
F 1 "SW_DIP_x01" H 3850 1826 50  0000 C CNN
F 2 "Connector_PinHeader_2.54mm:PinHeader_1x02_P2.54mm_Vertical" H 3850 1650 50  0001 C CNN
F 3 "" H 3850 1650 50  0001 C CNN
	1    3850 1650
	1    0    0    -1  
$EndComp
$Comp
L power:+9V #PWR0104
U 1 1 5BFFBC3D
P 3550 1450
F 0 "#PWR0104" H 3550 1300 50  0001 C CNN
F 1 "+9V" H 3565 1623 50  0000 C CNN
F 2 "" H 3550 1450 50  0001 C CNN
F 3 "" H 3550 1450 50  0001 C CNN
	1    3550 1450
	1    0    0    -1  
$EndComp
$Comp
L Device:CP1 C1
U 1 1 5BFFC20A
P 3800 2500
F 0 "C1" H 3915 2546 50  0000 L CNN
F 1 "100uF" H 3915 2455 50  0000 L CNN
F 2 "Capacitor_THT:CP_Radial_D6.3mm_P2.50mm" H 3800 2500 50  0001 C CNN
F 3 "~" H 3800 2500 50  0001 C CNN
	1    3800 2500
	1    0    0    -1  
$EndComp
$Comp
L power:GND #PWR0105
U 1 1 5BFFC6D3
P 3300 2450
F 0 "#PWR0105" H 3300 2200 50  0001 C CNN
F 1 "GND" H 3305 2277 50  0000 C CNN
F 2 "" H 3300 2450 50  0001 C CNN
F 3 "" H 3300 2450 50  0001 C CNN
	1    3300 2450
	1    0    0    -1  
$EndComp
$Comp
L Device:CP1 C4
U 1 1 5BFFCBBB
P 4300 3300
F 0 "C4" H 4415 3346 50  0000 L CNN
F 1 "10uF" H 4415 3255 50  0000 L CNN
F 2 "Capacitor_THT:CP_Radial_D6.3mm_P2.50mm" H 4300 3300 50  0001 C CNN
F 3 "~" H 4300 3300 50  0001 C CNN
	1    4300 3300
	1    0    0    -1  
$EndComp
Wire Wire Line
	4300 3450 4250 3500
Wire Wire Line
	4150 3300 4100 3300
Wire Wire Line
	4100 3300 4100 3900
Wire Bus Line
	4950 3850 4100 3850
Connection ~ 4550 3500
Wire Wire Line
	4550 3500 4550 3750
Wire Wire Line
	4300 3150 4250 3150
Wire Wire Line
	4550 2150 4550 2250
Wire Wire Line
	3550 1450 3550 1650
Wire Wire Line
	4150 1650 4150 2550
Wire Wire Line
	4250 2550 4550 2550
$Comp
L Device:Battery BT1
U 1 1 5C02FFE6
P 2100 1150
F 0 "BT1" H 2208 1196 50  0000 L CNN
F 1 "9v" H 2208 1105 50  0000 L CNN
F 2 "Connector_PinHeader_2.54mm:PinHeader_1x02_P2.54mm_Vertical" V 2100 1210 50  0001 C CNN
F 3 "~" V 2100 1210 50  0001 C CNN
	1    2100 1150
	1    0    0    -1  
$EndComp
$Comp
L power:+9V #PWR0106
U 1 1 5C03008F
P 2100 800
F 0 "#PWR0106" H 2100 650 50  0001 C CNN
F 1 "+9V" H 2115 973 50  0000 C CNN
F 2 "" H 2100 800 50  0001 C CNN
F 3 "" H 2100 800 50  0001 C CNN
	1    2100 800 
	1    0    0    -1  
$EndComp
Wire Wire Line
	2100 800  2100 950 
$Comp
L power:GND #PWR0107
U 1 1 5C030795
P 2100 1400
F 0 "#PWR0107" H 2100 1150 50  0001 C CNN
F 1 "GND" H 2105 1227 50  0000 C CNN
F 2 "" H 2100 1400 50  0001 C CNN
F 3 "" H 2100 1400 50  0001 C CNN
	1    2100 1400
	1    0    0    -1  
$EndComp
Wire Wire Line
	5400 3450 5400 3850
Connection ~ 5400 3850
Wire Wire Line
	5400 3850 5900 3850
Wire Wire Line
	2100 1400 2100 1350
Wire Wire Line
	3600 2950 3950 2950
Wire Wire Line
	3600 2650 3800 2650
Wire Wire Line
	3750 2800 3950 2800
Wire Wire Line
	3950 2800 3950 2750
Connection ~ 5900 3850
$Comp
L Connector:Conn_01x02_Male J1
U 1 1 5C0568AB
P 2300 2350
F 0 "J1" H 2406 2528 50  0000 C CNN
F 1 "Entrada audio" H 2406 2437 50  0000 C CNN
F 2 "Connector:FanPinHeader_1x03_P2.54mm_Vertical" H 2300 2350 50  0001 C CNN
F 3 "~" H 2300 2350 50  0001 C CNN
	1    2300 2350
	1    0    0    -1  
$EndComp
Wire Wire Line
	2500 2350 3800 2350
Wire Wire Line
	3300 2450 2500 2450
Text Label 2800 2350 0    50   ~ 0
Vin
Text GLabel 4550 2250 0    50   Input ~ 0
GND
Text GLabel 2100 1350 0    50   Input ~ 0
GND
$Comp
L Connector:Conn_01x02_Male J2
U 1 1 5C059DA9
P 6100 3250
F 0 "J2" H 6073 3130 50  0000 R CNN
F 1 "Laser" H 6073 3221 50  0000 R CNN
F 2 "Connector:FanPinHeader_1x03_P2.54mm_Vertical" H 6100 3250 50  0001 C CNN
F 3 "~" H 6100 3250 50  0001 C CNN
	1    6100 3250
	-1   0    0    1   
$EndComp
Wire Wire Line
	5900 3250 5900 3850
$EndSCHEMATC
